Lab 6
…
Which words are most used in each of the specialties? You can use group_by() and top_n() from dplyr to have the calculations be done within each specialty. Remember to remove stop words. What are the 5 most-used words for each specialty?

specialty_count <- mtsamples %>% 
  unnest_tokens(token, transcription) %>% 
  group_by(medical_specialty) %>% 
  filter(!grepl('[0-9]', token)) %>%
  anti_join(stop_words, by = c("token" = "word")) %>% 
  count(token, sort = TRUE) %>%
  top_n(5, n) %>% 
  arrange(medical_specialty, desc(n))

specialty_count

# A tibble: 210 × 3
# Groups:   medical_specialty [40]
   medical_specialty       token         n
   <chr>                   <chr>     <int>
 1 " Allergy / Immunology" history      38
 2 " Allergy / Immunology" noted        23
 3 " Allergy / Immunology" patient      22
 4 " Allergy / Immunology" allergies    21
 5 " Allergy / Immunology" nasal        13
 6 " Allergy / Immunology" past         13
 7 " Autopsy"              left         83
 8 " Autopsy"              inch         59
 9 " Autopsy"              neck         55
10 " Autopsy"              anterior     47
# ℹ 200 more rows
…
Sentiment analysis of each specialty. Which specialties have the most positive and negative sentiments?

sentiment <- mtsamples %>% 
  unnest_tokens(word, transcription) %>% 
  inner_join(get_sentiments("afinn")) %>% 
  group_by(medical_specialty) %>% 
  summarise(n = sum(value)) %>% 
  arrange(desc(n))

Joining with `by = join_by(word)`

sentiment

# A tibble: 40 × 2
   medical_specialty                 n
   <chr>                         <dbl>
 1 " Ophthalmology"                250
 2 " Diets and Nutritions"         137
 3 " Speech - Language"            125
 4 " Surgery"                      109
 5 " Cosmetic / Plastic Surgery"    83
 6 " Podiatry"                      18
 7 " Hospice - Palliative Care"    -27
 8 " Endocrinology"                -38
 9 " Lab Medicine - Pathology"    -101
10 " Physical Medicine - Rehab"   -111
# ℹ 30 more rows
…
